module gitlab.com/webstradev/testcontainers-example

go 1.21.5

require github.com/testcontainers/testcontainers-go v0.27.0

require (
	dario.cat/mergo v1.0.0 // indirect
	github.com/Azure/go-ansiterm v0.0.0-20210617225240-d185dfc1b5a1 // indirect
	github.com/Microsoft/go-winio v0.6.1 // indirect
	github.com/Microsoft/hcsshim v0.11.4 // indirect
	github.com/cenkalti/backoff/v4 v4.2.1 // indirect
	github.com/containerd/containerd v1.7.11 // indirect
	github.com/containerd/log v0.1.0 // indirect
	github.com/cpuguy83/dockercfg v0.3.1 // indirect
	github.com/docker/distribution v2.8.2+incompatible // indirect
	github.com/docker/docker v24.0.7+incompatible // indirect
	github.com/docker/go-connections v0.4.0 // indirect
	github.com/docker/go-units v0.5.0 // indirect
	github.com/go-ole/go-ole v1.2.6 // indirect
	github.com/gogo/protobuf v1.3.2 // indirect
	github.com/golang/protobuf v1.5.3 // indirect
	github.com/google/uuid v1.4.0 // indirect
	github.com/klauspost/compress v1.16.0 // indirect
	github.com/lufia/plan9stats v0.0.0-20211012122336-39d0f177ccd0 // indirect
	github.com/magiconair/properties v1.8.7 // indirect
	github.com/moby/patternmatcher v0.6.0 // indirect
	github.com/moby/sys/sequential v0.5.0 // indirect
	github.com/moby/term v0.5.0 // indirect
	github.com/morikuni/aec v1.0.0 // indirect
	github.com/opencontainers/go-digest v1.0.0 // indirect
	github.com/opencontainers/image-spec v1.1.0-rc5 // indirect
	github.com/opencontainers/runc v1.1.5 // indirect
	github.com/pkg/errors v0.9.1 // indirect
	github.com/power-devops/perfstat v0.0.0-20210106213030-5aafc221ea8c // indirect
	github.com/shirou/gopsutil/v3 v3.23.11 // indirect
	github.com/shoenig/go-m1cpu v0.1.6 // indirect
	github.com/sirupsen/logrus v1.9.3 // indirect
	github.com/tklauser/go-sysconf v0.3.12 // indirect
	github.com/tklauser/numcpus v0.6.1 // indirect
	github.com/yusufpapurcu/wmi v1.2.3 // indirect
	golang.org/x/exp v0.0.0-20230510235704-dd950f8aeaea // indirect
	golang.org/x/mod v0.11.0 // indirect
	golang.org/x/net v0.17.0 // indirect
	golang.org/x/sys v0.15.0 // indirect
	golang.org/x/tools v0.10.0 // indirect
	google.golang.org/genproto/googleapis/rpc v0.0.0-20230711160842-782d3b101e98 // indirect
	google.golang.org/grpc v1.58.3 // indirect
	google.golang.org/protobuf v1.31.0 // indirect
)
